<?xml version="1.0" encoding="utf-8"?>
<!-- Generator: Adobe Illustrator 20.1.0, SVG Export Plug-In . SVG Version: 6.00 Build 0)  -->
<svg version="1.1" xmlns="http://www.w3.org/2000/svg" xmlns:xlink="http://www.w3.org/1999/xlink" x="0px" y="0px" width="20.1px"
	 height="28.5px" viewBox="0 0 20.1 28.5" style="enable-background:new 0 0 20.1 28.5;" xml:space="preserve">
<style type="text/css">
	.st0{display:none;}
	.st1{display:inline;}
	.st2{fill:url(#SVGID_1_);}
	.st3{fill:url(#SVGID_2_);}
	.st4{fill:url(#SVGID_3_);}
	.st5{fill:url(#SVGID_4_);}
</style>
<g id="Layer_1" class="st0">
	<g class="st1">
		<linearGradient id="SVGID_1_" gradientUnits="userSpaceOnUse" x1="7.4912" y1="4.162" x2="18.5476" y2="23.3122">
			<stop  offset="0" style="stop-color:#9E1F63"/>
			<stop  offset="0.3731" style="stop-color:#8C2372"/>
			<stop  offset="1" style="stop-color:#662D91"/>
		</linearGradient>
		<path class="st2" d="M13.1,26c-1.4,0-2.5-1.2-2.5-2.5V8.4l-2.7,2.8c-0.4,0.4-0.9,0.6-1.4,0.6c-1.1,0-2.1-0.9-2.1-2.1
			c0-0.5,0.2-1.1,0.6-1.5l5.5-5.6c0.5-0.5,1.3-0.9,2.2-0.9c1.6,0,3,1.3,3,2.9v19C15.7,24.9,14.6,26,13.1,26z"/>
	</g>
</g>
<g id="Layer_2" class="st0">
	<g class="st1">
		<linearGradient id="SVGID_2_" gradientUnits="userSpaceOnUse" x1="3.4955" y1="4.5959" x2="16.945" y2="27.8911">
			<stop  offset="0" style="stop-color:#9E1F63"/>
			<stop  offset="0.3731" style="stop-color:#8C2372"/>
			<stop  offset="1" style="stop-color:#662D91"/>
		</linearGradient>
		<path class="st3" d="M17.8,27.1H3.9c-1.3,0-2.4-1-2.4-2.5c0-0.8,0.4-1.7,1.1-2.2c9-6.6,11.8-9.3,11.8-12.1c0-2.1-1.9-3.1-3.9-3.1
			C8.6,7.2,7,7.8,5.6,8.7C5.1,9,4.7,9.2,4.1,9.2c-1.2,0-2.2-1-2.2-2.3c0-0.4,0.1-0.7,0.3-1C3.4,4,7.4,2.7,10.4,2.7
			c5.1,0,9.2,2.9,9.2,7.7c0,4.1-3.4,7.7-9.6,12.2h7.8c1.2,0,2.2,1,2.2,2.2C20,26.1,19,27.1,17.8,27.1z"/>
	</g>
</g>
<g id="Layer_3">
	<g>
		<linearGradient id="SVGID_3_" gradientUnits="userSpaceOnUse" x1="3.2879" y1="3.4969" x2="15.8437" y2="25.2443">
			<stop  offset="0" style="stop-color:#9E1F63"/>
			<stop  offset="0.3731" style="stop-color:#8C2372"/>
			<stop  offset="1" style="stop-color:#662D91"/>
		</linearGradient>
		<path class="st4" d="M9.8,26.7c-3.5,0-7.5-1.3-8.6-3.2c-0.2-0.3-0.3-0.6-0.3-1c0-1.3,1.2-2.3,2.3-2.3c0.4,0,0.9,0.1,1.3,0.4
			c1.6,0.9,3.5,1.5,5.1,1.5c2.9,0,4.5-1.3,4.5-3.1c0-1.9-1.5-2.8-4.8-2.8c-1.9,0.3-3.2-0.6-3.2-2.3c0-1.3,0.9-2.2,2.3-2.2
			c3.1,0.1,5.3-0.6,5.3-2.6c0-1.9-1.9-2.8-4.5-2.8C7.6,6.4,6,6.9,4.6,7.8C4.3,8,3.8,8.1,3.4,8.1C2.3,8.1,1.2,7.2,1.2,6
			c0-0.6,0.3-1.2,0.8-1.5c2-1.6,4.6-2.6,7.9-2.6c5.6,0,9.1,2.5,9.1,6.5c0,3-2.6,5-5.3,5.5c2.4,0.3,5.6,2.2,5.6,5.8
			C19.2,23.8,15.5,26.7,9.8,26.7z"/>
	</g>
</g>
<g id="Layer_4" class="st0">
	<g class="st1">
		<linearGradient id="SVGID_4_" gradientUnits="userSpaceOnUse" x1="4.8953" y1="5.7061" x2="16.4057" y2="25.6428">
			<stop  offset="0" style="stop-color:#9E1F63"/>
			<stop  offset="0.3731" style="stop-color:#8C2372"/>
			<stop  offset="1" style="stop-color:#662D91"/>
		</linearGradient>
		<path class="st5" d="M17.9,21.3h-1.1V24c0,1.4-1.2,2.5-2.6,2.5c-1.4,0-2.5-1.2-2.5-2.5v-2.7h-9c-1.4,0-2.6-1.2-2.6-2.8
			c0-0.6,0.1-1.2,0.5-1.7l8-12.7c0.8-1.3,2.4-2.1,3.9-2.1c2.2-0.4,4.4,0.6,4.4,2.9v11.9h1.1c1.2,0,2.2,1,2.2,2.3
			C20.1,20.3,19.1,21.3,17.9,21.3z M11.7,6.8l-6.5,10h6.5V6.8z"/>
	</g>
</g>
</svg>
