<?xml version="1.0" encoding="utf-8"?>
<!-- Generator: Adobe Illustrator 19.2.1, SVG Export Plug-In . SVG Version: 6.00 Build 0)  -->
<svg version="1.1" id="Layer_1" xmlns="http://www.w3.org/2000/svg" xmlns:xlink="http://www.w3.org/1999/xlink" x="0px" y="0px"
	 width="18px" height="18px" viewBox="0 0 18 18" style="enable-background:new 0 0 18 18;" xml:space="preserve">
<style type="text/css">
	.st0{fill:#FFFFFF;}
</style>
<g>
	<polygon class="st0" points="1,12 4.6,12 0.6,16 2,17.4 6,13.4 6,17 8,17 8,10 1,10 	"/>
	<polygon class="st0" points="16,0.6 12,4.6 12,1 10,1 10,8 17,8 17,6 13.4,6 17.4,2 	"/>
</g>
</svg>
