<?xml version="1.0" encoding="utf-8"?>
<!-- Generator: Adobe Illustrator 20.0.0, SVG Export Plug-In . SVG Version: 6.00 Build 0)  -->
<svg version="1.1" id="Layer_1" xmlns="http://www.w3.org/2000/svg" xmlns:xlink="http://www.w3.org/1999/xlink" x="0px" y="0px"
	 width="244.1px" height="77.7px" viewBox="0 0 244.1 77.7" style="enable-background:new 0 0 244.1 77.7;" xml:space="preserve">
<style type="text/css">
	.st0{fill:#FFFFFF;}
</style>
<g>
	<g>
		<path class="st0" d="M99.7,39.6c0,1.7-0.6,3-1.8,3.9c-1.2,0.9-2.8,1.3-5,1.3c-1.2,0-2.2-0.1-3.1-0.2c-0.9-0.1-1.8-0.4-2.7-0.7
			v-4.4c0.9,0.4,1.8,0.7,2.8,0.9c1,0.2,1.9,0.4,2.7,0.4c1.2,0,1.8-0.3,1.8-0.8c0-0.3-0.2-0.5-0.5-0.8s-1.3-0.7-2.9-1.3
			c-1.5-0.6-2.5-1.3-3.1-2.1c-0.6-0.8-0.9-1.7-0.9-2.9c0-1.5,0.6-2.6,1.7-3.5c1.2-0.8,2.8-1.2,4.9-1.2c1.1,0,2,0.1,3,0.3
			c0.9,0.2,1.9,0.6,2.9,1l-1.5,3.6c-0.7-0.3-1.5-0.6-2.3-0.8c-0.8-0.2-1.5-0.3-2-0.3c-0.9,0-1.4,0.2-1.4,0.7c0,0.3,0.2,0.5,0.5,0.7
			c0.3,0.2,1.2,0.6,2.7,1.2c1.1,0.5,2,0.9,2.5,1.4s1,1,1.2,1.6C99.6,38,99.7,38.7,99.7,39.6z"/>
		<path class="st0" d="M125,44.8c-2.7,0-4.7-0.7-6.2-2.1c-1.5-1.4-2.2-3.4-2.2-6.1c0-2.7,0.7-4.8,2.1-6.2c1.4-1.4,3.3-2.2,5.9-2.2
			c2.4,0,4.3,0.6,5.6,1.9c1.3,1.3,2,3.1,2,5.4V38h-9.9c0,0.9,0.4,1.6,1,2.1c0.6,0.5,1.5,0.8,2.5,0.8c1,0,1.9-0.1,2.7-0.3
			c0.8-0.2,1.7-0.5,2.7-0.9v4c-0.9,0.4-1.8,0.7-2.7,0.9C127.4,44.7,126.3,44.8,125,44.8z M124.7,32c-0.7,0-1.2,0.2-1.6,0.6
			s-0.7,1.1-0.8,1.9h4.8c0-0.8-0.2-1.4-0.7-1.9C125.9,32.2,125.4,32,124.7,32z"/>
		<path class="st0" d="M142.9,44.8c-2.7,0-4.7-0.7-6.2-2.1s-2.2-3.4-2.2-6.1c0-2.7,0.7-4.8,2.1-6.2s3.3-2.2,5.9-2.2
			c2.4,0,4.3,0.6,5.6,1.9c1.3,1.3,2,3.1,2,5.4V38H140c0,0.9,0.4,1.6,1,2.1c0.6,0.5,1.5,0.8,2.5,0.8c1,0,1.9-0.1,2.7-0.3
			c0.8-0.2,1.7-0.5,2.7-0.9v4c-0.9,0.4-1.8,0.7-2.7,0.9C145.3,44.7,144.2,44.8,142.9,44.8z M142.6,32c-0.7,0-1.2,0.2-1.6,0.6
			s-0.7,1.1-0.8,1.9h4.8c0-0.8-0.2-1.4-0.7-1.9C143.8,32.2,143.3,32,142.6,32z"/>
		<path class="st0" d="M162.7,44.8c-0.8,0-1.5-0.1-2.2-0.4s-1.3-0.8-1.9-1.4h-0.3c0.2,1.1,0.3,1.8,0.3,2.1v3.9h-5.5V28.5h4.5l0.8,2
			h0.3c1-1.5,2.4-2.3,4.3-2.3c1.8,0,3.2,0.7,4.2,2.2c1,1.5,1.5,3.5,1.5,6.1c0,2.6-0.5,4.6-1.6,6.1C165.9,44,164.5,44.8,162.7,44.8z
			 M160.8,32.5c-0.8,0-1.4,0.3-1.7,0.9c-0.3,0.6-0.5,1.4-0.5,2.6v0.4c0,1.4,0.2,2.4,0.6,3c0.4,0.6,0.9,0.9,1.7,0.9
			c0.7,0,1.2-0.3,1.5-0.9c0.3-0.6,0.5-1.6,0.5-3c0-1.4-0.2-2.4-0.5-3C162.1,32.8,161.6,32.5,160.8,32.5z"/>
	</g>
	<path class="st0" d="M92.8,69.5c-1.9,0-3.3-0.7-4.2-2.2h-0.1l0,1c0,0.6,0,1.2,0,1.9v4.8h-1.1V56.7h1l0.2,1.8h0.1
		c0.9-1.3,2.2-2,4.1-2c1.7,0,3,0.6,3.9,1.7c0.9,1.1,1.3,2.7,1.3,4.8c0,2.1-0.5,3.6-1.4,4.8C95.7,68.9,94.4,69.5,92.8,69.5z
		 M92.8,68.4c1.3,0,2.3-0.5,3-1.4c0.7-0.9,1.1-2.3,1.1-4c0-3.7-1.3-5.5-4-5.5c-1.5,0-2.5,0.4-3.2,1.2c-0.7,0.8-1,2.1-1,3.9V63
		c0,2,0.3,3.3,1,4.2C90.3,68,91.3,68.4,92.8,68.4z"/>
	<path class="st0" d="M101.3,53.3c0-0.7,0.2-1.1,0.7-1.1c0.2,0,0.4,0.1,0.6,0.3s0.2,0.5,0.2,0.8c0,0.3-0.1,0.6-0.2,0.8
		s-0.3,0.3-0.6,0.3C101.6,54.4,101.3,54,101.3,53.3z M102.6,69.2h-1.1V56.7h1.1V69.2z"/>
	<path class="st0" d="M110.1,68.4c0.7,0,1.3-0.1,1.9-0.2v0.9c-0.6,0.2-1.2,0.3-1.9,0.3c-1.1,0-1.9-0.3-2.4-0.9
		c-0.5-0.6-0.8-1.5-0.8-2.8v-8.1H105v-0.7l1.8-0.5l0.6-2.8h0.6v3h3.7v1H108v7.9c0,1,0.2,1.7,0.5,2.1S109.4,68.4,110.1,68.4z"/>
	<path class="st0" d="M118,68.4c0.7,0,1.3-0.1,1.9-0.2v0.9c-0.6,0.2-1.2,0.3-1.9,0.3c-1.1,0-1.9-0.3-2.4-0.9
		c-0.5-0.6-0.8-1.5-0.8-2.8v-8.1h-1.8v-0.7l1.8-0.5l0.6-2.8h0.6v3h3.7v1h-3.7v7.9c0,1,0.2,1.7,0.5,2.1
		C116.8,68.2,117.3,68.4,118,68.4z"/>
	<path class="st0" d="M130.3,66c0,1.1-0.4,2-1.3,2.6c-0.9,0.6-2.1,0.9-3.6,0.9c-1.7,0-3-0.3-4-0.8v-1.2c1.3,0.6,2.6,0.9,4,0.9
		c1.2,0,2.2-0.2,2.8-0.6c0.6-0.4,1-1,1-1.6c0-0.6-0.3-1.2-0.8-1.6c-0.5-0.4-1.3-0.9-2.5-1.3c-1.2-0.5-2.1-0.8-2.6-1.2
		c-0.5-0.3-0.9-0.7-1.1-1.1c-0.3-0.4-0.4-0.9-0.4-1.5c0-0.9,0.4-1.7,1.2-2.2c0.8-0.5,1.9-0.8,3.3-0.8c1.3,0,2.6,0.3,3.8,0.8l-0.4,1
		c-1.2-0.5-2.4-0.8-3.4-0.8c-1,0-1.8,0.2-2.4,0.5s-0.9,0.8-0.9,1.4c0,0.7,0.2,1.2,0.7,1.6c0.5,0.4,1.4,0.8,2.7,1.3
		c1.1,0.4,1.9,0.8,2.5,1.1c0.5,0.3,0.9,0.7,1.2,1.1C130.2,64.9,130.3,65.4,130.3,66z"/>
	<path class="st0" d="M138.8,56.5c1.7,0,3.1,0.5,3.9,1.6c0.9,1.1,1.3,2.7,1.3,4.8c0,2.1-0.5,3.7-1.4,4.8c-0.9,1.1-2.2,1.7-3.9,1.7
		c-0.9,0-1.7-0.2-2.4-0.6s-1.3-0.9-1.7-1.6h-0.1l-0.3,1.9h-0.7V51.4h1.1v4.5c0,0.7,0,1.3,0,1.9l0,1h0.1c0.5-0.8,1-1.3,1.7-1.7
		C137.1,56.7,137.9,56.5,138.8,56.5z M138.8,57.5c-1.5,0-2.5,0.4-3.2,1.3c-0.6,0.8-1,2.2-1,4.2v0.2c0,1.9,0.3,3.2,1,4.1
		c0.7,0.8,1.7,1.2,3.1,1.2c1.4,0,2.4-0.5,3.1-1.4c0.7-1,1-2.3,1-4.1C142.9,59.3,141.5,57.5,138.8,57.5z"/>
	<path class="st0" d="M148.5,56.7v8.1c0,1.3,0.3,2.2,0.8,2.7c0.5,0.6,1.3,0.9,2.5,0.9c1.5,0,2.6-0.4,3.3-1.1c0.7-0.8,1.1-2,1.1-3.7
		v-6.9h1.1v12.5h-1l-0.2-1.7H156c-0.8,1.3-2.3,2-4.3,2c-2.8,0-4.3-1.5-4.3-4.6v-8.2H148.5z"/>
	<path class="st0" d="M166.3,56.5c0.5,0,1.1,0.1,1.7,0.2l-0.2,1.1c-0.5-0.1-1.1-0.2-1.6-0.2c-1.1,0-1.9,0.5-2.6,1.4
		c-0.7,0.9-1,2-1,3.4v6.9h-1.1V56.7h1l0.1,2.3h0.1c0.5-0.9,1.1-1.6,1.6-1.9C164.8,56.7,165.5,56.5,166.3,56.5z"/>
	<path class="st0" d="M180.3,56.7v0.8l-2.6,0.2c0.7,0.9,1,1.8,1,2.8c0,1.2-0.4,2.2-1.2,2.9c-0.8,0.7-1.9,1.1-3.2,1.1
		c-0.6,0-1,0-1.2-0.1c-0.5,0.2-0.8,0.5-1,0.8c-0.2,0.3-0.4,0.7-0.4,1c0,0.4,0.2,0.7,0.5,0.9c0.3,0.2,0.8,0.3,1.5,0.3h2.2
		c1.4,0,2.4,0.3,3.1,0.8c0.7,0.5,1.1,1.4,1.1,2.4c0,1.3-0.5,2.3-1.6,3.1c-1.1,0.7-2.6,1.1-4.6,1.1c-1.6,0-2.8-0.3-3.6-0.9
		c-0.9-0.6-1.3-1.4-1.3-2.5c0-0.9,0.3-1.6,0.8-2.1c0.5-0.6,1.3-1,2.2-1.2c-0.4-0.2-0.7-0.4-0.9-0.7c-0.2-0.3-0.3-0.6-0.3-1
		c0-0.8,0.5-1.6,1.6-2.2c-0.7-0.3-1.3-0.8-1.7-1.4c-0.4-0.6-0.6-1.4-0.6-2.2c0-1.2,0.4-2.3,1.2-3c0.8-0.8,1.9-1.1,3.2-1.1
		c0.8,0,1.5,0.1,1.9,0.2H180.3z M170.2,71.3c0,1.7,1.3,2.6,3.8,2.6c3.3,0,4.9-1,4.9-3.1c0-0.8-0.3-1.3-0.8-1.6
		c-0.5-0.3-1.3-0.5-2.5-0.5h-2C171.4,68.6,170.2,69.5,170.2,71.3z M171.2,60.6c0,1,0.3,1.7,0.9,2.2c0.6,0.5,1.4,0.8,2.3,0.8
		c1,0,1.8-0.3,2.4-0.8c0.6-0.5,0.8-1.3,0.8-2.3c0-1.1-0.3-1.9-0.9-2.4c-0.6-0.5-1.4-0.8-2.4-0.8c-1,0-1.8,0.3-2.3,0.9
		C171.5,58.8,171.2,59.6,171.2,60.6z"/>
	<path class="st0" d="M191.6,69.2v-8.1c0-1.3-0.3-2.2-0.8-2.7c-0.5-0.6-1.3-0.9-2.5-0.9c-1.5,0-2.6,0.4-3.3,1.1c-0.7,0.8-1,2-1,3.7
		v6.9h-1.1V51.4h1.1V57l-0.1,1.6h0.1c0.5-0.8,1.1-1.3,1.8-1.6c0.7-0.3,1.6-0.5,2.7-0.5c2.8,0,4.3,1.5,4.3,4.6v8.2H191.6z"/>
	<path class="st0" d="M196.5,68.3c0-0.8,0.3-1.1,0.9-1.1c0.6,0,0.9,0.4,0.9,1.1c0,0.8-0.3,1.1-0.9,1.1
		C196.8,69.5,196.5,69.1,196.5,68.3z"/>
	<path class="st0" d="M207.4,69.5c-1.8,0-3.2-0.6-4.2-1.7c-1-1.1-1.5-2.7-1.5-4.7c0-2.1,0.5-3.7,1.6-4.8c1-1.2,2.5-1.7,4.3-1.7
		c1.1,0,2.1,0.2,3.1,0.6l-0.3,1c-1.1-0.4-2-0.5-2.8-0.5c-1.5,0-2.7,0.5-3.5,1.4c-0.8,0.9-1.2,2.3-1.2,4.1c0,1.7,0.4,3,1.2,4
		c0.8,1,1.9,1.4,3.3,1.4c1.1,0,2.2-0.2,3.2-0.6v1.1C209.7,69.3,208.6,69.5,207.4,69.5z"/>
	<path class="st0" d="M223.9,63c0,2-0.5,3.6-1.5,4.8c-1,1.1-2.4,1.7-4.1,1.7c-1.1,0-2.1-0.3-2.9-0.8c-0.8-0.5-1.5-1.3-1.9-2.3
		c-0.4-1-0.7-2.1-0.7-3.4c0-2,0.5-3.6,1.5-4.8c1-1.1,2.3-1.7,4.1-1.7c1.7,0,3.1,0.6,4,1.7C223.4,59.4,223.9,61,223.9,63z M214,63
		c0,1.7,0.4,3.1,1.1,4c0.8,1,1.8,1.4,3.2,1.4c1.4,0,2.4-0.5,3.2-1.4c0.8-1,1.1-2.3,1.1-4c0-1.7-0.4-3.1-1.1-4
		c-0.8-0.9-1.8-1.4-3.2-1.4c-1.4,0-2.4,0.5-3.2,1.4C214.4,59.9,214,61.2,214,63z"/>
	<path class="st0" d="M242.9,69.2V61c0-1.2-0.2-2.1-0.7-2.7c-0.5-0.6-1.2-0.8-2.2-0.8c-1.3,0-2.2,0.4-2.8,1.1
		c-0.6,0.7-0.9,1.8-0.9,3.3v7.3h-1.2v-8.5c0-2.1-1-3.2-2.9-3.2c-1.3,0-2.3,0.4-2.9,1.1c-0.6,0.8-0.9,2-0.9,3.7v6.9h-1.1V56.7h0.9
		l0.2,1.7h0.1c0.3-0.6,0.8-1.1,1.5-1.4c0.6-0.3,1.3-0.5,2.1-0.5c2,0,3.2,0.7,3.8,2.2h0c0.4-0.7,1-1.3,1.6-1.6
		c0.7-0.4,1.5-0.6,2.3-0.6c1.4,0,2.4,0.4,3.1,1.1c0.7,0.7,1,1.9,1,3.5v8.2H242.9z"/>
	<g>
		<path class="st0" d="M74.6,61.8H27.3c-0.7,0-1.3,0.6-1.3,1.3v8.1c0,0.7,0.6,1.3,1.3,1.3h2.4v3.2c0,1.1,0.9,1.9,1.9,1.9h1.5
			c1.1,0,1.9-0.9,1.9-1.9v-3.2h31.7v3.2c0,1.1,0.9,1.9,1.9,1.9h1.5c1.1,0,1.9-0.9,1.9-1.9v-3.2h2.4c0.7,0,1.3-0.6,1.3-1.3v-8.1
			C75.8,62.4,75.3,61.8,74.6,61.8z"/>
		<path class="st0" d="M27.3,59.6h47.3c0.4,0,0.5-0.5,0.2-0.7l-4.9-3.1V55c0-0.1,0-0.1,0-0.2V40.7c0-0.5-0.4-0.9-0.9-0.9
			c-0.5,0-0.9,0.4-0.9,0.9v0.8H33.8v-0.8c0-0.5-0.4-0.9-0.9-0.9c-0.5,0-0.9,0.4-0.9,0.9v14.2c0,0.1,0,0.3,0.1,0.4v0.6l-4.9,3.1
			C26.8,59.1,26.9,59.6,27.3,59.6z M53.7,53.7l0.3-1.5c0-0.1,0.2-0.2,0.3-0.2h10.9c0.2,0,0.3,0.1,0.3,0.2l0.6,1.7l0.8,2
			c0,0.1,0,0.2-0.2,0.2H53.4c-0.1,0-0.2-0.1-0.2-0.2L53.7,53.7z M34.1,55.8l0.8-1.8l0.8-1.9c0.1-0.1,0.2-0.2,0.4-0.2H47
			c0.1,0,0.3,0.1,0.3,0.2l0.3,1.5l0.5,2.1c0,0.1-0.1,0.2-0.2,0.2H34.3C34.2,56,34.1,55.9,34.1,55.8z"/>
	</g>
	<path class="st0" d="M113.6,39.7h-4.9c-0.6,0-1-0.5-1-1V22.1c0-5-2.4-9.8-10.5-9.8c-5.9,0-13.4,0-13.5,0C78.4,4.7,69.7,0,60.4,0
		C47.1,0,35.9,8.9,32.8,21.6c-9.8,0.8-18.1,8-20.4,17.5C5.1,41.1,0,47.7,0,55.4c0,8.9,6.8,16.4,15.6,17l0.1,0l8.2,0V67l-8,0
		C10,66.5,5.5,61.5,5.5,55.4c0-5.7,4.1-10.5,9.7-11.4l2-0.3l0.3-2C18.8,33.3,26.2,27,34.8,27l2.7,0l0.4-2.3
		C39.6,13.5,49.1,5.5,60.4,5.5c8,0,17.9,4.7,20.4,12.4c0,0,12.9,0,15.5,0c2.6,0,6,1.9,6,5.8c0,3.3,0,16.2,0,20c0,0.6,0.5,1,1,1h10.3
		c0.6,0,1-0.5,1-1v-2.9C114.6,40.2,114.2,39.7,113.6,39.7z"/>
</g>
</svg>
